{
  "info" : {
    "author" : "zeplin",
    "version" : 1
  },
  "images" : [
    {
      "idiom" : "universal",
      "filename" : "yahooJp.png",
      "scale" : "1x"
    },
    {
      "idiom" : "universal",
      "filename" : "yahooJp@2x.png",
      "scale" : "2x"
    },
    {
      "idiom" : "universal",
      "filename" : "yahooJp@3x.png",
      "scale" : "3x"
    }
  ]
}